{
    "editor": [
        {
            "icon": "",
            "key": "preGameScreen",
            "header": "PreGameScreen",
            "disabled": false,
            "fields": [
                {
                    "key": "titleText",
                    "header": "Title Text",
                    "type": "text"
                },
                {
                    "key": "titleTextSize",
                    "header": "Title text size",
                    "type": "range",
                    "options": {
                        "minValue": 20,
                        "maxValue": 40,
                        "stepSize": "1"
                    }
                },
                {
                    "key": "playButtonText",
                    "header": "Play Button Text",
                    "type": "text"
                },
                {
                    "key": "buttonTextColor",
                    "header": "Play Button Text Color",
                    "type": "color"
                },
                {
                    "key": "backgroundImage",
                    "header": "Background Image",
                    "type": "image"
                },
                {
                    "key": "titleImage",
                    "header": "Header Image",
                    "type": "image"
                },
                {
                    "key": "titleImageSize",
                    "header": "Header image size",
                    "type": "range",
                    "options": {
                        "minValue": 150,
                        "maxValue": 400,
                        "stepSize": "1"
                    }
                },
                {
                    "key": "cardColor",
                    "header": "Card Color",
                    "type": "color"
                },
                {
                    "key": "buttonColor",
                    "header": "Play Button Color",
                    "type": "color"
                },
                {
                    "key": "fontFamily",
                    "header": "Google Font Name",
                    "type": "text"
                },
                {
                    "key": "showLeaderboardButton",
                    "header": "Show leaderboard button",
                    "type": "boolean"
                },
                {
                    "key": "leaderboardButtonText",
                    "header": "Leaderboard button text",
                    "type": "text"
                },
                {
                    "key": "showSoundButton",
                    "header": "Show sound button",
                    "type": "boolean"
                },
                {
                    "key": "soundEnabledIcon",
                    "type": "image",
                    "header": "Sound enabled icon"
                },
                {
                    "key": "soundDisabledIcon",
                    "type": "image",
                    "header": "Sound disabled icon"
                }
            ]
        },
        {
            "icon": "",
            "key": "settings",
            "header": "Game Settings",
            "disabled": false,
            "fields": [
                {
                    "key": "instructions1",
                    "type": "text",
                    "header": "Instructions Text 1"
                },
                {
                    "key": "instructions2",
                    "type": "text",
                    "header": "Instructions Text 2"
                },
                {
                    "key": "instructions3",
                    "type": "text",
                    "header": "Instructions Text 3"
                },
                {
                    "key": "textColor",
                    "header": "In Game Text Color",
                    "type": "color"
                },
                {
                    "key": "coins",
                    "header": "Coin images",
                    "type": "array",
                    "fields": [
                        {
                            "key": "coin1",
                            "header": "Coin 1",
                            "type": "image"
                        },
                        {
                            "key": "coin2",
                            "header": "Coin 2",
                            "type": "image"
                        },
                        {
                            "key": "coin3",
                            "header": "Coin 3",
                            "type": "image"
                        }
                    ]
                },
                {
                    "key": "spikes",
                    "header": "Spike images",
                    "type": "array",
                    "fields": [
                        {
                            "key": "spikes1",
                            "header": "Spikes 1",
                            "type": "image"
                        }
                    ]
                },
                {
                    "key": "block",
                    "header": "Ground middle image",
                    "type": "image"
                },
                {
                    "key": "top",
                    "header": "Ground top image",
                    "type": "image"
                },
                {
                    "key": "hill",
                    "header": "Ground hill image",
                    "type": "image"
                },
                {
                    "key": "player",
                    "header": "Player image",
                    "type": "image"
                },
                {
                    "key": "fixedLength",
                    "header": "Stop game after amount of time",
                    "type": "boolean"
                },
                {
                    "key": "gameLength",
                    "header": "Amount of time to stop gaem after",
                    "type": "range",
                    "options": {
                        "minValue": 5,
                        "maxValue": 120,
                        "stepSize": 1
                    }
                },
                {
                    "key": "theme",
                    "header": "Background Music",
                    "type": "sound"
                },
                {
                    "key": "tapSound",
                    "header": "Tap sound effect",
                    "type": "sound"
                },
                {
                    "key": "coinSound",
                    "header": "Coin collect sound",
                    "type": "sound"
                },
                {
                    "key": "loseSound",
                    "header": "Lose sound effect",
                    "type": "sound"
                },
                {
                    "key": "volume",
                    "header": "Background music volume",
                    "type": "range",
                    "options": {
                        "minValue": 0,
                        "maxValue": 1,
                        "stepSize": "0.1"
                    }
                }
            ]
        },
        {
            "icon": "",
            "key": "postGameScreen",
            "header": "Post Game Screen",
            "disabled": false,
            "fields": [
                {
                    "key": "scoreText",
                    "header": "Text before score",
                    "type": "text"
                },
                {
                    "key": "textColor",
                    "header": "Text Color",
                    "type": "color"
                },
                {
                    "key": "buttonTextColor",
                    "header": "Button text color",
                    "type": "color"
                },
                {
                    "key": "cardColor",
                    "header": "Card Background Color",
                    "type": "color"
                },
                {
                    "key": "playButtonText",
                    "header": "Play again button text",
                    "type": "text"
                },
                {
                    "key": "buttonColor",
                    "header": "Buttons color",
                    "type": "color"
                },
                {
                    "key": "buttonTextColor",
                    "header": "Buttons text color",
                    "type": "color"
                },
                {
                    "key": "showText",
                    "header": "Show custom text",
                    "type": "boolean"
                },
                {
                    "key": "customText",
                    "header": "Custom text",
                    "type": "text"
                },
                {
                    "key": "submitName",
                    "header": "Show name field",
                    "type": "boolean"
                },
                {
                    "key": "submitEmail",
                    "header": "Show email field",
                    "type": "boolean"
                },
                {
                    "key": "submitScoreText",
                    "header": "Submit score button text",
                    "type": "text"
                },
                {
                    "key": "showLeadeboardButtonPostGameScreen",
                    "header": "Show Leadeboard Button",
                    "type": "boolean"
                },
                {
                    "key": "leaderboardButtonText",
                    "type": "text",
                    "header": "Leadeboard button text"
                },
                {
                    "key": "showCTA",
                    "header": "Show CTA Button",
                    "type": "boolean"
                },
                {
                    "key": "ctaText",
                    "header": "CTA text",
                    "type": "text"
                },
                {
                    "key": "ctaButtonText",
                    "header": "CTA button text",
                    "type": "text"
                },
                {
                    "key": "ctaUrl",
                    "header": "CTA Link",
                    "type": "text"
                }
            ]
        }
    ],
    "config": {
        "preGameScreen": {
            "titleText": "Avengers run",
            "titleTextSize": 28,
            "playButtonText": "Play",
            "cardColor": "#ffffff",
            "buttonColor": "#000000",
            "buttonTextColor": "#ffffff",
            "backgroundImage": "http://playcent.com/protected/asset/e19f6a5655bf481b94ae882efe70897f",
            "titleImage": "http://playcent.com/protected/asset/2ffe3900ce1d47d6993537aefdc6a478",
            "titleImageSize": 200,
            "fontFamily": "Rosario",
            "showLeaderboardButton": false,
            "leaderboardButtonText": "Leadeboard",
            "showSoundButton": true,
            "soundEnabledIcon": "http://playcent.com/protected/jumper/sound_on.png",
            "soundDisabledIcon": "http://playcent.com/protected/jumper/sound_off.png"
        },
        "settings": {
            "instructions1": "Tap / Spacebar to jump!",
            "instructions2": "Jump over the gaps!",
            "instructions3": "Collect stones and dodge thanos!",
            "textColor": "#000",
            "coins": {
                "coin1": "http://playcent.com/protected/asset/1823f56416db4b5f87635b9c86db959d",
                "coin2": "http://playcent.com/protected/asset/587dab30ac774ab9871f8f8f2f196e20",
                "coin3": "http://playcent.com/protected/asset/1106b01698114089af1b1f128b73b02a"
            },
            "spikes": {
                "spikes1": "http://playcent.com/protected/asset/05933ff2347045309011e783e1c2c6d9"
            },
            "top": "http://playcent.com/protected/asset/b624156de67c4658b469e143465c2f2a",
            "hill": "http://playcent.com/protected/asset/6e0dc726a93f47eb8ab6b0c9a5692416",
            "block": "http://playcent.com/protected/jumper/block.png",
            "player": "http://playcent.com/protected/asset/9f1778fe12104629b28f2c841f116dd2",
            "fixedLength": true,
            "gameLength": 55,
            "theme": "http://playcent.com/protected/jumper/theme.mp3",
            "volume": "0.7",
            "tap": "http://playcent.com/protected/jumper/coin.mp3",
            "lose": "http://playcent.com/protected/jumper/lose.wav"
        },
        "postGameScreen": {
            "scoreText": "Your score is: ",
            "playButtonText": "Play Again",
            "buttonColor": "#000000",
            "cardColor": "#ffffff",
            "textColor": "#000000",
            "buttonTextColor": "#ffffff",
            "showLeadeboardButtonPostGameScreen": true,
            "submitScoreText": "Submit score",
            "leaderboardButtonText": "Leaderboard",
            "showText": true,
            "customText": "Hello world",
            "submitName": true,
            "submitEmail": true,
            "showCTA": true,
            "ctaText": "Check out our page for more",
            "ctaButtonText": "Go to Playcent",
            "ctaUrl": "http://playcent.com/browser/#/home"
        }
    }
}